.....................
----------------------------------------------------------------------
Ran 21 tests in 0.003s

OK
Name               Stmts   Miss Branch BrPart  Cover   Missing
--------------------------------------------------------------
TestDiplomacy.py     110      0      8      1    99%   187->exit
diplomacy.py         103     11     56      8    88%   38->exit, 50-52, 108, 113-114, 118->137, 125-126, 132-133, 140
--------------------------------------------------------------
TOTAL                213     11     64      9    93%
