.........
----------------------------------------------------------------------
Ran 9 tests in 0.004s

OK
Name               Stmts   Miss Branch BrPart  Cover   Missing
--------------------------------------------------------------
Diplomacy.py         106      0     72      0   100%
TestDiplomacy.py      60      0      2      0   100%
--------------------------------------------------------------
TOTAL                166      0     74      0   100%
