...
----------------------------------------------------------------------
Ran 3 tests in 0.002s

OK
Name               Stmts   Miss Branch BrPart  Cover   Missing
--------------------------------------------------------------
Diplomacy.py          98      0     44      0   100%
TestDiplomacy.py      22      0      0      0   100%
--------------------------------------------------------------
TOTAL                120      0     44      0   100%
