...............
----------------------------------------------------------------------
Ran 15 tests in 0.003s

OK
Name               Stmts   Miss Branch BrPart  Cover   Missing
--------------------------------------------------------------
Diplomacy.py         116      1     50      1    99%   39, 170->119
TestDiplomacy.py     123      0     20      0   100%
--------------------------------------------------------------
TOTAL                239      1     70      1    99%
