...
----------------------------------------------------------------------
Ran 3 tests in 0.000s

OK
Name               Stmts   Miss Branch BrPart  Cover   Missing
--------------------------------------------------------------
Diplomacy.py          78      0     56      1    99%   46->38
TestDiplomacy.py      19      0      0      0   100%
--------------------------------------------------------------
TOTAL                 97      0     56      1    99%
